mc16_13TeV.396100.MGPy8EG_A14N23LO_StauStau_200p0_1p0_TFilt_mmix_s12.deriv.DAOD_SUSY18.e6707_a875_r9364_p3840
mc16_13TeV.396100.MGPy8EG_A14N23LO_StauStau_200p0_1p0_TFilt_mmix_s12.deriv.DAOD_SUSY18.e6707_a875_r10724_p3840
mc16_13TeV.396100.MGPy8EG_A14N23LO_StauStau_200p0_1p0_TFilt_mmix_s12.deriv.DAOD_SUSY18.e6707_a875_r10201_p3840
mc16_13TeV.396101.MGPy8EG_A14N23LO_StauStau_200p0_1p0_TFilt_mmix_s12_Dm100.deriv.DAOD_SUSY18.e6707_a875_r9364_p3840
mc16_13TeV.396101.MGPy8EG_A14N23LO_StauStau_200p0_1p0_TFilt_mmix_s12_Dm100.deriv.DAOD_SUSY18.e6707_a875_r10724_p3840
mc16_13TeV.396101.MGPy8EG_A14N23LO_StauStau_200p0_1p0_TFilt_mmix_s12_Dm100.deriv.DAOD_SUSY18.e6707_a875_r10201_p3840
mc16_13TeV.396102.MGPy8EG_A14N23LO_StauStau_120p0_1p0_TFilt.deriv.DAOD_SUSY18.e6707_a875_r9364_p3840
mc16_13TeV.396102.MGPy8EG_A14N23LO_StauStau_120p0_1p0_TFilt.deriv.DAOD_SUSY18.e6707_a875_r10724_p3840
mc16_13TeV.396102.MGPy8EG_A14N23LO_StauStau_120p0_1p0_TFilt.deriv.DAOD_SUSY18.e6707_a875_r10201_p3840
mc16_13TeV.396103.MGPy8EG_A14N23LO_StauStau_160p0_1p0_TFilt.deriv.DAOD_SUSY18.e6707_a875_r9364_p3840
mc16_13TeV.396103.MGPy8EG_A14N23LO_StauStau_160p0_1p0_TFilt.deriv.DAOD_SUSY18.e6707_a875_r10724_p3840
mc16_13TeV.396103.MGPy8EG_A14N23LO_StauStau_160p0_1p0_TFilt.deriv.DAOD_SUSY18.e6707_a875_r10201_p3840
mc16_13TeV.396104.MGPy8EG_A14N23LO_StauStau_200p0_1p0_TFilt.deriv.DAOD_SUSY18.e6707_a875_r9364_p3840
mc16_13TeV.396104.MGPy8EG_A14N23LO_StauStau_200p0_1p0_TFilt.deriv.DAOD_SUSY18.e6707_a875_r10724_p3840
mc16_13TeV.396104.MGPy8EG_A14N23LO_StauStau_200p0_1p0_TFilt.deriv.DAOD_SUSY18.e6707_a875_r10201_p3840
mc16_13TeV.396105.MGPy8EG_A14N23LO_StauStau_240p0_1p0_TFilt.deriv.DAOD_SUSY18.e6707_a875_r9364_p3840
mc16_13TeV.396105.MGPy8EG_A14N23LO_StauStau_240p0_1p0_TFilt.deriv.DAOD_SUSY18.e6707_a875_r10724_p3840
mc16_13TeV.396105.MGPy8EG_A14N23LO_StauStau_240p0_1p0_TFilt.deriv.DAOD_SUSY18.e6707_a875_r10201_p3840
mc16_13TeV.396106.MGPy8EG_A14N23LO_StauStau_280p0_1p0_TFilt.deriv.DAOD_SUSY18.e6707_a875_r9364_p3840
mc16_13TeV.396106.MGPy8EG_A14N23LO_StauStau_280p0_1p0_TFilt.deriv.DAOD_SUSY18.e6707_a875_r10724_p3840
mc16_13TeV.396106.MGPy8EG_A14N23LO_StauStau_280p0_1p0_TFilt.deriv.DAOD_SUSY18.e6707_a875_r10201_p3840
mc16_13TeV.396107.MGPy8EG_A14N23LO_StauStau_120p0_40p0_TFilt.deriv.DAOD_SUSY18.e6707_a875_r9364_p3840
mc16_13TeV.396107.MGPy8EG_A14N23LO_StauStau_120p0_40p0_TFilt.deriv.DAOD_SUSY18.e6707_a875_r10724_p3840
mc16_13TeV.396107.MGPy8EG_A14N23LO_StauStau_120p0_40p0_TFilt.deriv.DAOD_SUSY18.e6707_a875_r10201_p3840
mc16_13TeV.396108.MGPy8EG_A14N23LO_StauStau_160p0_40p0_TFilt.deriv.DAOD_SUSY18.e6707_a875_r9364_p3840
mc16_13TeV.396108.MGPy8EG_A14N23LO_StauStau_160p0_40p0_TFilt.deriv.DAOD_SUSY18.e6707_a875_r10724_p3840
mc16_13TeV.396108.MGPy8EG_A14N23LO_StauStau_160p0_40p0_TFilt.deriv.DAOD_SUSY18.e6707_a875_r10201_p3840
mc16_13TeV.396109.MGPy8EG_A14N23LO_StauStau_200p0_40p0_TFilt.deriv.DAOD_SUSY18.e6707_a875_r9364_p3840
mc16_13TeV.396109.MGPy8EG_A14N23LO_StauStau_200p0_40p0_TFilt.deriv.DAOD_SUSY18.e6707_a875_r10724_p3840
mc16_13TeV.396109.MGPy8EG_A14N23LO_StauStau_200p0_40p0_TFilt.deriv.DAOD_SUSY18.e6707_a875_r10201_p3840
mc16_13TeV.396110.MGPy8EG_A14N23LO_StauStau_240p0_40p0_TFilt.deriv.DAOD_SUSY18.e6707_a875_r9364_p3840
mc16_13TeV.396110.MGPy8EG_A14N23LO_StauStau_240p0_40p0_TFilt.deriv.DAOD_SUSY18.e6707_a875_r10724_p3840
mc16_13TeV.396110.MGPy8EG_A14N23LO_StauStau_240p0_40p0_TFilt.deriv.DAOD_SUSY18.e6707_a875_r10201_p3840
mc16_13TeV.396111.MGPy8EG_A14N23LO_StauStau_280p0_40p0_TFilt.deriv.DAOD_SUSY18.e6707_a875_r9364_p3840
mc16_13TeV.396111.MGPy8EG_A14N23LO_StauStau_280p0_40p0_TFilt.deriv.DAOD_SUSY18.e6707_a875_r10724_p3840
mc16_13TeV.396111.MGPy8EG_A14N23LO_StauStau_280p0_40p0_TFilt.deriv.DAOD_SUSY18.e6707_a875_r10201_p3840
mc16_13TeV.396112.MGPy8EG_A14N23LO_StauStau_160p0_80p0_TFilt.deriv.DAOD_SUSY18.e6707_a875_r9364_p3840
mc16_13TeV.396112.MGPy8EG_A14N23LO_StauStau_160p0_80p0_TFilt.deriv.DAOD_SUSY18.e6707_a875_r10724_p3840
mc16_13TeV.396112.MGPy8EG_A14N23LO_StauStau_160p0_80p0_TFilt.deriv.DAOD_SUSY18.e6707_a875_r10201_p3840
mc16_13TeV.396113.MGPy8EG_A14N23LO_StauStau_240p0_80p0_TFilt.deriv.DAOD_SUSY18.e6707_a875_r9364_p3840
mc16_13TeV.396113.MGPy8EG_A14N23LO_StauStau_240p0_80p0_TFilt.deriv.DAOD_SUSY18.e6707_a875_r10724_p3840
mc16_13TeV.396113.MGPy8EG_A14N23LO_StauStau_240p0_80p0_TFilt.deriv.DAOD_SUSY18.e6707_a875_r10201_p3840
mc16_13TeV.396114.MGPy8EG_A14N23LO_StauStau_80p0_1p0_TFilt.deriv.DAOD_SUSY18.e6707_a875_r9364_p3840
mc16_13TeV.396114.MGPy8EG_A14N23LO_StauStau_80p0_1p0_TFilt.deriv.DAOD_SUSY18.e6707_a875_r10201_p3840
mc16_13TeV.396114.MGPy8EG_A14N23LO_StauStau_80p0_1p0_TFilt.recon.AOD.e7538_a875_r10724
mc16_13TeV.396587.MadGraphPythia8EvtGen_A14N23LO_C1N2_Wh_hall_150p0_0p0_1T.deriv.DAOD_SUSY18.e7351_a875_r9364_p3840
mc16_13TeV.396587.MadGraphPythia8EvtGen_A14N23LO_C1N2_Wh_hall_150p0_0p0_1T.deriv.DAOD_SUSY18.e7351_a875_r10724_p3840
mc16_13TeV.396587.MadGraphPythia8EvtGen_A14N23LO_C1N2_Wh_hall_150p0_0p0_1T.deriv.DAOD_SUSY18.e7351_a875_r10201_p3840
mc16_13TeV.396588.MadGraphPythia8EvtGen_A14N23LO_C1N2_Wh_hall_152p5_22p5_1T.deriv.DAOD_SUSY18.e7351_a875_r9364_p3840
mc16_13TeV.396588.MadGraphPythia8EvtGen_A14N23LO_C1N2_Wh_hall_152p5_22p5_1T.deriv.DAOD_SUSY18.e7351_a875_r10724_p3840
mc16_13TeV.396588.MadGraphPythia8EvtGen_A14N23LO_C1N2_Wh_hall_152p5_22p5_1T.deriv.DAOD_SUSY18.e7351_a875_r10201_p3840
mc16_13TeV.396589.MadGraphPythia8EvtGen_A14N23LO_C1N2_Wh_hall_162p5_12p5_1T.deriv.DAOD_SUSY18.e7351_a875_r9364_p3840
mc16_13TeV.396589.MadGraphPythia8EvtGen_A14N23LO_C1N2_Wh_hall_162p5_12p5_1T.deriv.DAOD_SUSY18.e7351_a875_r10724_p3840
mc16_13TeV.396589.MadGraphPythia8EvtGen_A14N23LO_C1N2_Wh_hall_162p5_12p5_1T.deriv.DAOD_SUSY18.e7351_a875_r10201_p3840
mc16_13TeV.396590.MadGraphPythia8EvtGen_A14N23LO_C1N2_Wh_hall_165p0_35p0_1T.deriv.DAOD_SUSY18.e7351_a875_r9364_p3840
mc16_13TeV.396590.MadGraphPythia8EvtGen_A14N23LO_C1N2_Wh_hall_165p0_35p0_1T.deriv.DAOD_SUSY18.e7351_a875_r10724_p3840
mc16_13TeV.396590.MadGraphPythia8EvtGen_A14N23LO_C1N2_Wh_hall_165p0_35p0_1T.deriv.DAOD_SUSY18.e7351_a875_r10201_p3840
mc16_13TeV.396591.MadGraphPythia8EvtGen_A14N23LO_C1N2_Wh_hall_175p0_0p0_1T.deriv.DAOD_SUSY18.e7351_a875_r9364_p3840
mc16_13TeV.396591.MadGraphPythia8EvtGen_A14N23LO_C1N2_Wh_hall_175p0_0p0_1T.deriv.DAOD_SUSY18.e7351_a875_r10724_p3840
mc16_13TeV.396591.MadGraphPythia8EvtGen_A14N23LO_C1N2_Wh_hall_175p0_0p0_1T.deriv.DAOD_SUSY18.e7351_a875_r10201_p3840
mc16_13TeV.396592.MadGraphPythia8EvtGen_A14N23LO_C1N2_Wh_hall_175p0_25p0_1T.deriv.DAOD_SUSY18.e7351_a875_r9364_p3840
mc16_13TeV.396592.MadGraphPythia8EvtGen_A14N23LO_C1N2_Wh_hall_175p0_25p0_1T.deriv.DAOD_SUSY18.e7351_a875_r10724_p3840
mc16_13TeV.396592.MadGraphPythia8EvtGen_A14N23LO_C1N2_Wh_hall_175p0_25p0_1T.deriv.DAOD_SUSY18.e7351_a875_r10201_p3840
mc16_13TeV.396593.MadGraphPythia8EvtGen_A14N23LO_C1N2_Wh_hall_177p5_47p5_1T.deriv.DAOD_SUSY18.e7351_a875_r9364_p3840
mc16_13TeV.396593.MadGraphPythia8EvtGen_A14N23LO_C1N2_Wh_hall_177p5_47p5_1T.deriv.DAOD_SUSY18.e7351_a875_r10724_p3840
mc16_13TeV.396593.MadGraphPythia8EvtGen_A14N23LO_C1N2_Wh_hall_177p5_47p5_1T.deriv.DAOD_SUSY18.e7351_a875_r10201_p3840
mc16_13TeV.396594.MadGraphPythia8EvtGen_A14N23LO_C1N2_Wh_hall_187p5_12p5_1T.deriv.DAOD_SUSY18.e7351_a875_r9364_p3840
mc16_13TeV.396594.MadGraphPythia8EvtGen_A14N23LO_C1N2_Wh_hall_187p5_12p5_1T.deriv.DAOD_SUSY18.e7351_a875_r10724_p3840
mc16_13TeV.396594.MadGraphPythia8EvtGen_A14N23LO_C1N2_Wh_hall_187p5_12p5_1T.deriv.DAOD_SUSY18.e7351_a875_r10201_p3840
mc16_13TeV.396595.MadGraphPythia8EvtGen_A14N23LO_C1N2_Wh_hall_187p5_37p5_1T.deriv.DAOD_SUSY18.e7351_a875_r9364_p3840
mc16_13TeV.396595.MadGraphPythia8EvtGen_A14N23LO_C1N2_Wh_hall_187p5_37p5_1T.deriv.DAOD_SUSY18.e7351_a875_r10724_p3840
mc16_13TeV.396595.MadGraphPythia8EvtGen_A14N23LO_C1N2_Wh_hall_187p5_37p5_1T.deriv.DAOD_SUSY18.e7351_a875_r10201_p3840
mc16_13TeV.396596.MadGraphPythia8EvtGen_A14N23LO_C1N2_Wh_hall_190p0_60p0_1T.deriv.DAOD_SUSY18.e7351_a875_r9364_p3840
mc16_13TeV.396596.MadGraphPythia8EvtGen_A14N23LO_C1N2_Wh_hall_190p0_60p0_1T.deriv.DAOD_SUSY18.e7351_a875_r10724_p3840
mc16_13TeV.396596.MadGraphPythia8EvtGen_A14N23LO_C1N2_Wh_hall_190p0_60p0_1T.deriv.DAOD_SUSY18.e7351_a875_r10201_p3840
mc16_13TeV.396597.MadGraphPythia8EvtGen_A14N23LO_C1N2_Wh_hall_200p0_0p0_1T.deriv.DAOD_SUSY18.e7351_a875_r9364_p3840
mc16_13TeV.396597.MadGraphPythia8EvtGen_A14N23LO_C1N2_Wh_hall_200p0_0p0_1T.deriv.DAOD_SUSY18.e7351_a875_r10724_p3840
mc16_13TeV.396597.MadGraphPythia8EvtGen_A14N23LO_C1N2_Wh_hall_200p0_0p0_1T.deriv.DAOD_SUSY18.e7351_a875_r10201_p3840
mc16_13TeV.396598.MadGraphPythia8EvtGen_A14N23LO_C1N2_Wh_hall_200p0_25p0_1T.deriv.DAOD_SUSY18.e7351_a875_r9364_p3840
mc16_13TeV.396598.MadGraphPythia8EvtGen_A14N23LO_C1N2_Wh_hall_200p0_25p0_1T.deriv.DAOD_SUSY18.e7351_a875_r10724_p3840
mc16_13TeV.396598.MadGraphPythia8EvtGen_A14N23LO_C1N2_Wh_hall_200p0_25p0_1T.deriv.DAOD_SUSY18.e7351_a875_r10201_p3840
mc16_13TeV.396599.MadGraphPythia8EvtGen_A14N23LO_C1N2_Wh_hall_200p0_50p0_1T.deriv.DAOD_SUSY18.e7351_a875_r9364_p3840
mc16_13TeV.396599.MadGraphPythia8EvtGen_A14N23LO_C1N2_Wh_hall_200p0_50p0_1T.deriv.DAOD_SUSY18.e7351_a875_r10724_p3840
mc16_13TeV.396599.MadGraphPythia8EvtGen_A14N23LO_C1N2_Wh_hall_200p0_50p0_1T.deriv.DAOD_SUSY18.e7351_a875_r10201_p3840
mc16_13TeV.396600.MadGraphPythia8EvtGen_A14N23LO_C1N2_Wh_hall_202p5_72p5_1T.deriv.DAOD_SUSY18.e7351_a875_r9364_p3840
mc16_13TeV.396600.MadGraphPythia8EvtGen_A14N23LO_C1N2_Wh_hall_202p5_72p5_1T.deriv.DAOD_SUSY18.e7351_a875_r10724_p3840
mc16_13TeV.396600.MadGraphPythia8EvtGen_A14N23LO_C1N2_Wh_hall_202p5_72p5_1T.deriv.DAOD_SUSY18.e7351_a875_r10201_p3840
mc16_13TeV.396601.MadGraphPythia8EvtGen_A14N23LO_C1N2_Wh_hall_212p5_37p5_1T.deriv.DAOD_SUSY18.e7351_a875_r9364_p3840
mc16_13TeV.396601.MadGraphPythia8EvtGen_A14N23LO_C1N2_Wh_hall_212p5_37p5_1T.deriv.DAOD_SUSY18.e7351_a875_r10724_p3840
mc16_13TeV.396601.MadGraphPythia8EvtGen_A14N23LO_C1N2_Wh_hall_212p5_37p5_1T.deriv.DAOD_SUSY18.e7351_a875_r10201_p3840
mc16_13TeV.396602.MadGraphPythia8EvtGen_A14N23LO_C1N2_Wh_hall_212p5_62p5_1T.deriv.DAOD_SUSY18.e7351_a875_r9364_p3840
mc16_13TeV.396602.MadGraphPythia8EvtGen_A14N23LO_C1N2_Wh_hall_212p5_62p5_1T.deriv.DAOD_SUSY18.e7351_a875_r10724_p3840
mc16_13TeV.396602.MadGraphPythia8EvtGen_A14N23LO_C1N2_Wh_hall_212p5_62p5_1T.deriv.DAOD_SUSY18.e7351_a875_r10201_p3840
mc16_13TeV.396603.MadGraphPythia8EvtGen_A14N23LO_C1N2_Wh_hall_225p0_0p0_1T.deriv.DAOD_SUSY18.e7351_a875_r9364_p3840
mc16_13TeV.396603.MadGraphPythia8EvtGen_A14N23LO_C1N2_Wh_hall_225p0_0p0_1T.deriv.DAOD_SUSY18.e7351_a875_r10724_p3840
mc16_13TeV.396603.MadGraphPythia8EvtGen_A14N23LO_C1N2_Wh_hall_225p0_0p0_1T.deriv.DAOD_SUSY18.e7351_a875_r10201_p3840
mc16_13TeV.396604.MadGraphPythia8EvtGen_A14N23LO_C1N2_Wh_hall_225p0_25p0_1T.deriv.DAOD_SUSY18.e7351_a875_r9364_p3840
mc16_13TeV.396604.MadGraphPythia8EvtGen_A14N23LO_C1N2_Wh_hall_225p0_25p0_1T.deriv.DAOD_SUSY18.e7351_a875_r10724_p3840
mc16_13TeV.396604.MadGraphPythia8EvtGen_A14N23LO_C1N2_Wh_hall_225p0_25p0_1T.deriv.DAOD_SUSY18.e7351_a875_r10201_p3840
mc16_13TeV.396605.MadGraphPythia8EvtGen_A14N23LO_C1N2_Wh_hall_225p0_50p0_1T.deriv.DAOD_SUSY18.e7351_a875_r9364_p3840
mc16_13TeV.396605.MadGraphPythia8EvtGen_A14N23LO_C1N2_Wh_hall_225p0_50p0_1T.deriv.DAOD_SUSY18.e7351_a875_r10724_p3840
mc16_13TeV.396605.MadGraphPythia8EvtGen_A14N23LO_C1N2_Wh_hall_225p0_50p0_1T.deriv.DAOD_SUSY18.e7351_a875_r10201_p3840
mc16_13TeV.396606.MadGraphPythia8EvtGen_A14N23LO_C1N2_Wh_hall_225p0_75p0_1T.deriv.DAOD_SUSY18.e7351_a875_r9364_p3840
mc16_13TeV.396606.MadGraphPythia8EvtGen_A14N23LO_C1N2_Wh_hall_225p0_75p0_1T.deriv.DAOD_SUSY18.e7351_a875_r10724_p3840
mc16_13TeV.396606.MadGraphPythia8EvtGen_A14N23LO_C1N2_Wh_hall_225p0_75p0_1T.deriv.DAOD_SUSY18.e7351_a875_r10201_p3840
mc16_13TeV.396607.MadGraphPythia8EvtGen_A14N23LO_C1N2_Wh_hall_237p5_62p5_1T.deriv.DAOD_SUSY18.e7351_a875_r9364_p3840
mc16_13TeV.396607.MadGraphPythia8EvtGen_A14N23LO_C1N2_Wh_hall_237p5_62p5_1T.deriv.DAOD_SUSY18.e7351_a875_r10724_p3840
mc16_13TeV.396607.MadGraphPythia8EvtGen_A14N23LO_C1N2_Wh_hall_237p5_62p5_1T.deriv.DAOD_SUSY18.e7351_a875_r10201_p3840
mc16_13TeV.396608.MadGraphPythia8EvtGen_A14N23LO_C1N2_Wh_hall_250p0_0p0_1T.deriv.DAOD_SUSY18.e7351_a875_r9364_p3840
mc16_13TeV.396608.MadGraphPythia8EvtGen_A14N23LO_C1N2_Wh_hall_250p0_0p0_1T.deriv.DAOD_SUSY18.e7351_a875_r10724_p3840
mc16_13TeV.396608.MadGraphPythia8EvtGen_A14N23LO_C1N2_Wh_hall_250p0_0p0_1T.deriv.DAOD_SUSY18.e7351_a875_r10201_p3840
mc16_13TeV.396609.MadGraphPythia8EvtGen_A14N23LO_C1N2_Wh_hall_250p0_100p0_1T.deriv.DAOD_SUSY18.e7351_a875_r9364_p3840
mc16_13TeV.396609.MadGraphPythia8EvtGen_A14N23LO_C1N2_Wh_hall_250p0_100p0_1T.deriv.DAOD_SUSY18.e7351_a875_r10724_p3840
mc16_13TeV.396609.MadGraphPythia8EvtGen_A14N23LO_C1N2_Wh_hall_250p0_100p0_1T.deriv.DAOD_SUSY18.e7351_a875_r10201_p3840
mc16_13TeV.396610.MadGraphPythia8EvtGen_A14N23LO_C1N2_Wh_hall_250p0_25p0_1T.deriv.DAOD_SUSY18.e7351_a875_r9364_p3840
mc16_13TeV.396610.MadGraphPythia8EvtGen_A14N23LO_C1N2_Wh_hall_250p0_25p0_1T.deriv.DAOD_SUSY18.e7351_a875_r10724_p3840
mc16_13TeV.396610.MadGraphPythia8EvtGen_A14N23LO_C1N2_Wh_hall_250p0_25p0_1T.deriv.DAOD_SUSY18.e7351_a875_r10201_p3840
mc16_13TeV.396611.MadGraphPythia8EvtGen_A14N23LO_C1N2_Wh_hall_250p0_50p0_1T.deriv.DAOD_SUSY18.e7351_a875_r9364_p3840
mc16_13TeV.396611.MadGraphPythia8EvtGen_A14N23LO_C1N2_Wh_hall_250p0_50p0_1T.deriv.DAOD_SUSY18.e7351_a875_r10724_p3840
mc16_13TeV.396611.MadGraphPythia8EvtGen_A14N23LO_C1N2_Wh_hall_250p0_50p0_1T.deriv.DAOD_SUSY18.e7351_a875_r10201_p3840
mc16_13TeV.396612.MadGraphPythia8EvtGen_A14N23LO_C1N2_Wh_hall_250p0_75p0_1T.deriv.DAOD_SUSY18.e7351_a875_r9364_p3840
mc16_13TeV.396612.MadGraphPythia8EvtGen_A14N23LO_C1N2_Wh_hall_250p0_75p0_1T.deriv.DAOD_SUSY18.e7351_a875_r10724_p3840
mc16_13TeV.396612.MadGraphPythia8EvtGen_A14N23LO_C1N2_Wh_hall_250p0_75p0_1T.deriv.DAOD_SUSY18.e7351_a875_r10201_p3840
mc16_13TeV.396613.MadGraphPythia8EvtGen_A14N23LO_C1N2_Wh_hall_275p0_0p0_1T.deriv.DAOD_SUSY18.e7351_a875_r9364_p3840
mc16_13TeV.396613.MadGraphPythia8EvtGen_A14N23LO_C1N2_Wh_hall_275p0_0p0_1T.deriv.DAOD_SUSY18.e7351_a875_r10724_p3840
mc16_13TeV.396613.MadGraphPythia8EvtGen_A14N23LO_C1N2_Wh_hall_275p0_0p0_1T.deriv.DAOD_SUSY18.e7351_a875_r10201_p3840
mc16_13TeV.396614.MadGraphPythia8EvtGen_A14N23LO_C1N2_Wh_hall_275p0_25p0_1T.deriv.DAOD_SUSY18.e7351_a875_r9364_p3840
mc16_13TeV.396614.MadGraphPythia8EvtGen_A14N23LO_C1N2_Wh_hall_275p0_25p0_1T.deriv.DAOD_SUSY18.e7351_a875_r10724_p3840
mc16_13TeV.396614.MadGraphPythia8EvtGen_A14N23LO_C1N2_Wh_hall_275p0_25p0_1T.deriv.DAOD_SUSY18.e7351_a875_r10201_p3840
mc16_13TeV.396615.MadGraphPythia8EvtGen_A14N23LO_C1N2_Wh_hall_275p0_50p0_1T.deriv.DAOD_SUSY18.e7351_a875_r9364_p3840
mc16_13TeV.396615.MadGraphPythia8EvtGen_A14N23LO_C1N2_Wh_hall_275p0_50p0_1T.deriv.DAOD_SUSY18.e7351_a875_r10724_p3840
mc16_13TeV.396615.MadGraphPythia8EvtGen_A14N23LO_C1N2_Wh_hall_275p0_50p0_1T.deriv.DAOD_SUSY18.e7351_a875_r10201_p3840
mc16_13TeV.396616.MadGraphPythia8EvtGen_A14N23LO_C1N2_Wh_hall_275p0_75p0_1T.deriv.DAOD_SUSY18.e7351_a875_r9364_p3840
mc16_13TeV.396616.MadGraphPythia8EvtGen_A14N23LO_C1N2_Wh_hall_275p0_75p0_1T.deriv.DAOD_SUSY18.e7351_a875_r10724_p3840
mc16_13TeV.396616.MadGraphPythia8EvtGen_A14N23LO_C1N2_Wh_hall_275p0_75p0_1T.deriv.DAOD_SUSY18.e7351_a875_r10201_p3840
mc16_13TeV.396617.MadGraphPythia8EvtGen_A14N23LO_C1N2_Wh_hall_300p0_0p0_1T.deriv.DAOD_SUSY18.e7351_a875_r9364_p3840
mc16_13TeV.396617.MadGraphPythia8EvtGen_A14N23LO_C1N2_Wh_hall_300p0_0p0_1T.deriv.DAOD_SUSY18.e7351_a875_r10724_p3840
mc16_13TeV.396617.MadGraphPythia8EvtGen_A14N23LO_C1N2_Wh_hall_300p0_0p0_1T.deriv.DAOD_SUSY18.e7351_a875_r10201_p3840
mc16_13TeV.396618.MadGraphPythia8EvtGen_A14N23LO_C1N2_Wh_hall_300p0_100p0_1T.deriv.DAOD_SUSY18.e7351_a875_r9364_p3840
mc16_13TeV.396618.MadGraphPythia8EvtGen_A14N23LO_C1N2_Wh_hall_300p0_100p0_1T.deriv.DAOD_SUSY18.e7351_a875_r10724_p3840
mc16_13TeV.396618.MadGraphPythia8EvtGen_A14N23LO_C1N2_Wh_hall_300p0_100p0_1T.deriv.DAOD_SUSY18.e7351_a875_r10201_p3840
mc16_13TeV.396619.MadGraphPythia8EvtGen_A14N23LO_C1N2_Wh_hall_300p0_25p0_1T.deriv.DAOD_SUSY18.e7351_a875_r9364_p3840
mc16_13TeV.396619.MadGraphPythia8EvtGen_A14N23LO_C1N2_Wh_hall_300p0_25p0_1T.deriv.DAOD_SUSY18.e7351_a875_r10724_p3840
mc16_13TeV.396619.MadGraphPythia8EvtGen_A14N23LO_C1N2_Wh_hall_300p0_25p0_1T.deriv.DAOD_SUSY18.e7351_a875_r10201_p3840
mc16_13TeV.396620.MadGraphPythia8EvtGen_A14N23LO_C1N2_Wh_hall_300p0_50p0_1T.deriv.DAOD_SUSY18.e7351_a875_r9364_p3840
mc16_13TeV.396620.MadGraphPythia8EvtGen_A14N23LO_C1N2_Wh_hall_300p0_50p0_1T.deriv.DAOD_SUSY18.e7351_a875_r10724_p3840
mc16_13TeV.396620.MadGraphPythia8EvtGen_A14N23LO_C1N2_Wh_hall_300p0_50p0_1T.deriv.DAOD_SUSY18.e7351_a875_r10201_p3840
mc16_13TeV.396621.MadGraphPythia8EvtGen_A14N23LO_C1N2_Wh_hall_300p0_75p0_1T.deriv.DAOD_SUSY18.e7351_a875_r9364_p3840
mc16_13TeV.396621.MadGraphPythia8EvtGen_A14N23LO_C1N2_Wh_hall_300p0_75p0_1T.deriv.DAOD_SUSY18.e7351_a875_r10724_p3840
mc16_13TeV.396621.MadGraphPythia8EvtGen_A14N23LO_C1N2_Wh_hall_300p0_75p0_1T.deriv.DAOD_SUSY18.e7351_a875_r10201_p3840
mc16_13TeV.396622.MadGraphPythia8EvtGen_A14N23LO_C1N2_Wh_hall_325p0_0p0_1T.deriv.DAOD_SUSY18.e7351_a875_r9364_p3840
mc16_13TeV.396622.MadGraphPythia8EvtGen_A14N23LO_C1N2_Wh_hall_325p0_0p0_1T.deriv.DAOD_SUSY18.e7351_a875_r10724_p3840
mc16_13TeV.396622.MadGraphPythia8EvtGen_A14N23LO_C1N2_Wh_hall_325p0_0p0_1T.deriv.DAOD_SUSY18.e7351_a875_r10201_p3840
mc16_13TeV.396623.MadGraphPythia8EvtGen_A14N23LO_C1N2_Wh_hall_325p0_50p0_1T.deriv.DAOD_SUSY18.e7351_a875_r9364_p3840
mc16_13TeV.396623.MadGraphPythia8EvtGen_A14N23LO_C1N2_Wh_hall_325p0_50p0_1T.deriv.DAOD_SUSY18.e7351_a875_r10724_p3840
mc16_13TeV.396623.MadGraphPythia8EvtGen_A14N23LO_C1N2_Wh_hall_325p0_50p0_1T.deriv.DAOD_SUSY18.e7351_a875_r10201_p3840
mc16_13TeV.396624.MadGraphPythia8EvtGen_A14N23LO_C1N2_Wh_hall_350p0_0p0_1T.deriv.DAOD_SUSY18.e7351_a875_r9364_p3840
mc16_13TeV.396624.MadGraphPythia8EvtGen_A14N23LO_C1N2_Wh_hall_350p0_0p0_1T.deriv.DAOD_SUSY18.e7351_a875_r10724_p3840
mc16_13TeV.396624.MadGraphPythia8EvtGen_A14N23LO_C1N2_Wh_hall_350p0_0p0_1T.deriv.DAOD_SUSY18.e7351_a875_r10201_p3840
mc16_13TeV.396625.MadGraphPythia8EvtGen_A14N23LO_C1N2_Wh_hall_350p0_100p0_1T.deriv.DAOD_SUSY18.e7351_a875_r9364_p3840
mc16_13TeV.396625.MadGraphPythia8EvtGen_A14N23LO_C1N2_Wh_hall_350p0_100p0_1T.deriv.DAOD_SUSY18.e7351_a875_r10724_p3840
mc16_13TeV.396625.MadGraphPythia8EvtGen_A14N23LO_C1N2_Wh_hall_350p0_100p0_1T.deriv.DAOD_SUSY18.e7351_a875_r10201_p3840
mc16_13TeV.396626.MadGraphPythia8EvtGen_A14N23LO_C1N2_Wh_hall_350p0_25p0_1T.deriv.DAOD_SUSY18.e7351_a875_r9364_p3840
mc16_13TeV.396626.MadGraphPythia8EvtGen_A14N23LO_C1N2_Wh_hall_350p0_25p0_1T.deriv.DAOD_SUSY18.e7351_a875_r10724_p3840
mc16_13TeV.396626.MadGraphPythia8EvtGen_A14N23LO_C1N2_Wh_hall_350p0_25p0_1T.deriv.DAOD_SUSY18.e7351_a875_r10201_p3840
mc16_13TeV.396627.MadGraphPythia8EvtGen_A14N23LO_C1N2_Wh_hall_350p0_50p0_1T.deriv.DAOD_SUSY18.e7351_a875_r9364_p3840
mc16_13TeV.396627.MadGraphPythia8EvtGen_A14N23LO_C1N2_Wh_hall_350p0_50p0_1T.deriv.DAOD_SUSY18.e7351_a875_r10724_p3840
mc16_13TeV.396627.MadGraphPythia8EvtGen_A14N23LO_C1N2_Wh_hall_350p0_50p0_1T.deriv.DAOD_SUSY18.e7351_a875_r10201_p3840
mc16_13TeV.396628.MadGraphPythia8EvtGen_A14N23LO_C1N2_Wh_hall_350p0_75p0_1T.deriv.DAOD_SUSY18.e7351_a875_r9364_p3840
mc16_13TeV.396628.MadGraphPythia8EvtGen_A14N23LO_C1N2_Wh_hall_350p0_75p0_1T.deriv.DAOD_SUSY18.e7351_a875_r10724_p3840
mc16_13TeV.396628.MadGraphPythia8EvtGen_A14N23LO_C1N2_Wh_hall_350p0_75p0_1T.deriv.DAOD_SUSY18.e7351_a875_r10201_p3840
mc16_13TeV.396629.MadGraphPythia8EvtGen_A14N23LO_C1N2_Wh_hall_375p0_0p0_1T.deriv.DAOD_SUSY18.e7351_a875_r9364_p3840
mc16_13TeV.396629.MadGraphPythia8EvtGen_A14N23LO_C1N2_Wh_hall_375p0_0p0_1T.deriv.DAOD_SUSY18.e7351_a875_r10724_p3840
mc16_13TeV.396629.MadGraphPythia8EvtGen_A14N23LO_C1N2_Wh_hall_375p0_0p0_1T.deriv.DAOD_SUSY18.e7351_a875_r10201_p3840
mc16_13TeV.396630.MadGraphPythia8EvtGen_A14N23LO_C1N2_Wh_hall_375p0_50p0_1T.deriv.DAOD_SUSY18.e7351_a875_r9364_p3840
mc16_13TeV.396630.MadGraphPythia8EvtGen_A14N23LO_C1N2_Wh_hall_375p0_50p0_1T.deriv.DAOD_SUSY18.e7351_a875_r10724_p3840
mc16_13TeV.396630.MadGraphPythia8EvtGen_A14N23LO_C1N2_Wh_hall_375p0_50p0_1T.deriv.DAOD_SUSY18.e7351_a875_r10201_p3840
mc16_13TeV.396631.MadGraphPythia8EvtGen_A14N23LO_C1N2_Wh_hall_400p0_0p0_1T.deriv.DAOD_SUSY18.e7351_a875_r9364_p3840
mc16_13TeV.396631.MadGraphPythia8EvtGen_A14N23LO_C1N2_Wh_hall_400p0_0p0_1T.deriv.DAOD_SUSY18.e7351_a875_r10724_p3840
mc16_13TeV.396631.MadGraphPythia8EvtGen_A14N23LO_C1N2_Wh_hall_400p0_0p0_1T.deriv.DAOD_SUSY18.e7351_a875_r10201_p3840
mc16_13TeV.396632.MadGraphPythia8EvtGen_A14N23LO_C1N2_Wh_hall_400p0_25p0_1T.deriv.DAOD_SUSY18.e7351_a875_r9364_p3840
mc16_13TeV.396632.MadGraphPythia8EvtGen_A14N23LO_C1N2_Wh_hall_400p0_25p0_1T.deriv.DAOD_SUSY18.e7351_a875_r10724_p3840
mc16_13TeV.396632.MadGraphPythia8EvtGen_A14N23LO_C1N2_Wh_hall_400p0_25p0_1T.deriv.DAOD_SUSY18.e7351_a875_r10201_p3840
mc16_13TeV.396633.MadGraphPythia8EvtGen_A14N23LO_C1N2_Wh_hall_425p0_0p0_1T.deriv.DAOD_SUSY18.e7351_a875_r9364_p3840
mc16_13TeV.396633.MadGraphPythia8EvtGen_A14N23LO_C1N2_Wh_hall_425p0_0p0_1T.deriv.DAOD_SUSY18.e7351_a875_r10724_p3840
mc16_13TeV.396633.MadGraphPythia8EvtGen_A14N23LO_C1N2_Wh_hall_425p0_0p0_1T.deriv.DAOD_SUSY18.e7351_a875_r10201_p3840
mc16_13TeV.397010.MGPy8EG_A14N23LO_StauStau_200p0_80p0_TFilt.deriv.DAOD_SUSY18.e7004_a875_r9364_p3840
mc16_13TeV.397010.MGPy8EG_A14N23LO_StauStau_200p0_80p0_TFilt.deriv.DAOD_SUSY18.e7004_a875_r10724_p3840
mc16_13TeV.397010.MGPy8EG_A14N23LO_StauStau_200p0_80p0_TFilt.deriv.DAOD_SUSY18.e7004_a875_r10201_p3840
mc16_13TeV.397011.MGPy8EG_A14N23LO_StauStau_200p0_120p0_TFilt.deriv.DAOD_SUSY18.e7004_a875_r9364_p3840
mc16_13TeV.397011.MGPy8EG_A14N23LO_StauStau_200p0_120p0_TFilt.deriv.DAOD_SUSY18.e7004_a875_r10724_p3840
mc16_13TeV.397011.MGPy8EG_A14N23LO_StauStau_200p0_120p0_TFilt.deriv.DAOD_SUSY18.e7004_a875_r10201_p3840
mc16_13TeV.397012.MGPy8EG_A14N23LO_StauStau_240p0_120p0_TFilt.deriv.DAOD_SUSY18.e7004_a875_r9364_p3840
mc16_13TeV.397012.MGPy8EG_A14N23LO_StauStau_240p0_120p0_TFilt.deriv.DAOD_SUSY18.e7004_a875_r10724_p3840
mc16_13TeV.397012.MGPy8EG_A14N23LO_StauStau_240p0_120p0_TFilt.deriv.DAOD_SUSY18.e7004_a875_r10201_p3840
mc16_13TeV.397013.MGPy8EG_A14N23LO_StauStau_240p0_160p0_TFilt.deriv.DAOD_SUSY18.e7004_a875_r9364_p3840
mc16_13TeV.397013.MGPy8EG_A14N23LO_StauStau_240p0_160p0_TFilt.deriv.DAOD_SUSY18.e7004_a875_r10724_p3840
mc16_13TeV.397013.MGPy8EG_A14N23LO_StauStau_240p0_160p0_TFilt.deriv.DAOD_SUSY18.e7004_a875_r10201_p3840
mc16_13TeV.397014.MGPy8EG_A14N23LO_StauStau_280p0_80p0_TFilt.deriv.DAOD_SUSY18.e7004_a875_r9364_p3840
mc16_13TeV.397014.MGPy8EG_A14N23LO_StauStau_280p0_80p0_TFilt.deriv.DAOD_SUSY18.e7004_a875_r10724_p3840
mc16_13TeV.397014.MGPy8EG_A14N23LO_StauStau_280p0_80p0_TFilt.deriv.DAOD_SUSY18.e7004_a875_r10201_p3840
mc16_13TeV.397015.MGPy8EG_A14N23LO_StauStau_280p0_120p0_TFilt.deriv.DAOD_SUSY18.e7004_a875_r9364_p3840
mc16_13TeV.397015.MGPy8EG_A14N23LO_StauStau_280p0_120p0_TFilt.deriv.DAOD_SUSY18.e7004_a875_r10724_p3840
mc16_13TeV.397015.MGPy8EG_A14N23LO_StauStau_280p0_120p0_TFilt.deriv.DAOD_SUSY18.e7004_a875_r10201_p3840
mc16_13TeV.397016.MGPy8EG_A14N23LO_StauStau_280p0_160p0_TFilt.deriv.DAOD_SUSY18.e7004_a875_r9364_p3840
mc16_13TeV.397016.MGPy8EG_A14N23LO_StauStau_280p0_160p0_TFilt.deriv.DAOD_SUSY18.e7004_a875_r10724_p3840
mc16_13TeV.397016.MGPy8EG_A14N23LO_StauStau_280p0_160p0_TFilt.deriv.DAOD_SUSY18.e7004_a875_r10201_p3840
mc16_13TeV.397017.MGPy8EG_A14N23LO_StauStau_320p0_1p0_TFilt.deriv.DAOD_SUSY18.e7004_a875_r9364_p3840
mc16_13TeV.397017.MGPy8EG_A14N23LO_StauStau_320p0_1p0_TFilt.deriv.DAOD_SUSY18.e7004_a875_r10724_p3840
mc16_13TeV.397017.MGPy8EG_A14N23LO_StauStau_320p0_1p0_TFilt.deriv.DAOD_SUSY18.e7004_a875_r10201_p3840
mc16_13TeV.397018.MGPy8EG_A14N23LO_StauStau_320p0_40p0_TFilt.deriv.DAOD_SUSY18.e7004_a875_r9364_p3840
mc16_13TeV.397018.MGPy8EG_A14N23LO_StauStau_320p0_40p0_TFilt.deriv.DAOD_SUSY18.e7004_a875_r10724_p3840
mc16_13TeV.397018.MGPy8EG_A14N23LO_StauStau_320p0_40p0_TFilt.deriv.DAOD_SUSY18.e7004_a875_r10201_p3840
mc16_13TeV.397019.MGPy8EG_A14N23LO_StauStau_320p0_80p0_TFilt.deriv.DAOD_SUSY18.e7004_a875_r9364_p3840
mc16_13TeV.397019.MGPy8EG_A14N23LO_StauStau_320p0_80p0_TFilt.deriv.DAOD_SUSY18.e7004_a875_r10724_p3840
mc16_13TeV.397019.MGPy8EG_A14N23LO_StauStau_320p0_80p0_TFilt.deriv.DAOD_SUSY18.e7004_a875_r10201_p3840
mc16_13TeV.397020.MGPy8EG_A14N23LO_StauStau_320p0_120p0_TFilt.deriv.DAOD_SUSY18.e7004_a875_r9364_p3840
mc16_13TeV.397020.MGPy8EG_A14N23LO_StauStau_320p0_120p0_TFilt.deriv.DAOD_SUSY18.e7004_a875_r10724_p3840
mc16_13TeV.397020.MGPy8EG_A14N23LO_StauStau_320p0_120p0_TFilt.deriv.DAOD_SUSY18.e7004_a875_r10201_p3840
mc16_13TeV.397021.MGPy8EG_A14N23LO_StauStau_320p0_160p0_TFilt.deriv.DAOD_SUSY18.e7004_a875_r9364_p3840
mc16_13TeV.397021.MGPy8EG_A14N23LO_StauStau_320p0_160p0_TFilt.deriv.DAOD_SUSY18.e7004_a875_r10724_p3840
mc16_13TeV.397021.MGPy8EG_A14N23LO_StauStau_320p0_160p0_TFilt.deriv.DAOD_SUSY18.e7004_a875_r10201_p3840
mc16_13TeV.397022.MGPy8EG_A14N23LO_StauStau_360p0_1p0_TFilt.deriv.DAOD_SUSY18.e7004_a875_r9364_p3840
mc16_13TeV.397022.MGPy8EG_A14N23LO_StauStau_360p0_1p0_TFilt.deriv.DAOD_SUSY18.e7004_a875_r10724_p3840
mc16_13TeV.397022.MGPy8EG_A14N23LO_StauStau_360p0_1p0_TFilt.deriv.DAOD_SUSY18.e7004_a875_r10201_p3840
mc16_13TeV.397023.MGPy8EG_A14N23LO_StauStau_360p0_40p0_TFilt.deriv.DAOD_SUSY18.e7004_a875_r9364_p3840
mc16_13TeV.397023.MGPy8EG_A14N23LO_StauStau_360p0_40p0_TFilt.deriv.DAOD_SUSY18.e7004_a875_r10724_p3840
mc16_13TeV.397023.MGPy8EG_A14N23LO_StauStau_360p0_40p0_TFilt.deriv.DAOD_SUSY18.e7004_a875_r10201_p3840
mc16_13TeV.397024.MGPy8EG_A14N23LO_StauStau_360p0_80p0_TFilt.deriv.DAOD_SUSY18.e7004_a875_r9364_p3840
mc16_13TeV.397024.MGPy8EG_A14N23LO_StauStau_360p0_80p0_TFilt.deriv.DAOD_SUSY18.e7004_a875_r10724_p3840
mc16_13TeV.397024.MGPy8EG_A14N23LO_StauStau_360p0_80p0_TFilt.deriv.DAOD_SUSY18.e7004_a875_r10201_p3840
mc16_13TeV.397025.MGPy8EG_A14N23LO_StauStau_360p0_120p0_TFilt.deriv.DAOD_SUSY18.e7004_a875_r9364_p3840
mc16_13TeV.397025.MGPy8EG_A14N23LO_StauStau_360p0_120p0_TFilt.deriv.DAOD_SUSY18.e7004_a875_r10724_p3840
mc16_13TeV.397025.MGPy8EG_A14N23LO_StauStau_360p0_120p0_TFilt.deriv.DAOD_SUSY18.e7004_a875_r10201_p3840
mc16_13TeV.397026.MGPy8EG_A14N23LO_StauStau_400p0_1p0_TFilt.deriv.DAOD_SUSY18.e7004_a875_r9364_p3840
mc16_13TeV.397026.MGPy8EG_A14N23LO_StauStau_400p0_1p0_TFilt.deriv.DAOD_SUSY18.e7004_a875_r10724_p3840
mc16_13TeV.397026.MGPy8EG_A14N23LO_StauStau_400p0_1p0_TFilt.deriv.DAOD_SUSY18.e7004_a875_r10201_p3840
mc16_13TeV.397027.MGPy8EG_A14N23LO_StauStau_400p0_80p0_TFilt.deriv.DAOD_SUSY18.e7004_a875_r9364_p3840
mc16_13TeV.397027.MGPy8EG_A14N23LO_StauStau_400p0_80p0_TFilt.deriv.DAOD_SUSY18.e7004_a875_r10724_p3840
mc16_13TeV.397027.MGPy8EG_A14N23LO_StauStau_400p0_80p0_TFilt.deriv.DAOD_SUSY18.e7004_a875_r10201_p3840
mc16_13TeV.397028.MGPy8EG_A14N23LO_StauStau_400p0_160p0_TFilt.deriv.DAOD_SUSY18.e7004_a875_r9364_p3840
mc16_13TeV.397028.MGPy8EG_A14N23LO_StauStau_400p0_160p0_TFilt.deriv.DAOD_SUSY18.e7004_a875_r10724_p3840
mc16_13TeV.397028.MGPy8EG_A14N23LO_StauStau_400p0_160p0_TFilt.deriv.DAOD_SUSY18.e7004_a875_r10201_p3840
mc16_13TeV.397029.MGPy8EG_A14N23LO_StauStau_440p0_40p0_TFilt.deriv.DAOD_SUSY18.e7004_a875_r9364_p3840
mc16_13TeV.397029.MGPy8EG_A14N23LO_StauStau_440p0_40p0_TFilt.deriv.DAOD_SUSY18.e7004_a875_r10724_p3840
mc16_13TeV.397029.MGPy8EG_A14N23LO_StauStau_440p0_40p0_TFilt.deriv.DAOD_SUSY18.e7004_a875_r10201_p3840
mc16_13TeV.397030.MGPy8EG_A14N23LO_StauStau_440p0_1p0_TFilt.deriv.DAOD_SUSY18.e7004_a875_r9364_p3840
mc16_13TeV.397030.MGPy8EG_A14N23LO_StauStau_440p0_1p0_TFilt.deriv.DAOD_SUSY18.e7004_a875_r10724_p3840
mc16_13TeV.397030.MGPy8EG_A14N23LO_StauStau_440p0_1p0_TFilt.deriv.DAOD_SUSY18.e7004_a875_r10201_p3840
mc16_13TeV.397031.MGPy8EG_A14N23LO_StauStau_400p0_120p0_TFilt.deriv.DAOD_SUSY18.e7004_a875_r9364_p3840
mc16_13TeV.397031.MGPy8EG_A14N23LO_StauStau_400p0_120p0_TFilt.deriv.DAOD_SUSY18.e7004_a875_r10724_p3840
mc16_13TeV.397031.MGPy8EG_A14N23LO_StauStau_400p0_120p0_TFilt.deriv.DAOD_SUSY18.e7004_a875_r10201_p3840
mc16_13TeV.397032.MGPy8EG_A14N23LO_StauStau_400p0_40p0_TFilt.deriv.DAOD_SUSY18.e7004_a875_r9364_p3840
mc16_13TeV.397032.MGPy8EG_A14N23LO_StauStau_400p0_40p0_TFilt.deriv.DAOD_SUSY18.e7004_a875_r10724_p3840
mc16_13TeV.397032.MGPy8EG_A14N23LO_StauStau_400p0_40p0_TFilt.deriv.DAOD_SUSY18.e7004_a875_r10201_p3840
mc16_13TeV.397033.MGPy8EG_A14N23LO_StauStau_360p0_200p0_TFilt.deriv.DAOD_SUSY18.e7004_a875_r9364_p3840
mc16_13TeV.397033.MGPy8EG_A14N23LO_StauStau_360p0_200p0_TFilt.deriv.DAOD_SUSY18.e7004_a875_r10724_p3840
mc16_13TeV.397033.MGPy8EG_A14N23LO_StauStau_360p0_200p0_TFilt.deriv.DAOD_SUSY18.e7004_a875_r10201_p3840
mc16_13TeV.397034.MGPy8EG_A14N23LO_StauStau_360p0_160p0_TFilt.deriv.DAOD_SUSY18.e7004_a875_r9364_p3840
mc16_13TeV.397034.MGPy8EG_A14N23LO_StauStau_360p0_160p0_TFilt.deriv.DAOD_SUSY18.e7004_a875_r10724_p3840
mc16_13TeV.397034.MGPy8EG_A14N23LO_StauStau_360p0_160p0_TFilt.deriv.DAOD_SUSY18.e7004_a875_r10201_p3840
mc16_13TeV.397035.MGPy8EG_A14N23LO_StauStau_380p0_1p0_TFilt.deriv.DAOD_SUSY18.e7004_a875_r9364_p3840
mc16_13TeV.397035.MGPy8EG_A14N23LO_StauStau_380p0_1p0_TFilt.deriv.DAOD_SUSY18.e7004_a875_r10724_p3840
mc16_13TeV.397035.MGPy8EG_A14N23LO_StauStau_380p0_1p0_TFilt.deriv.DAOD_SUSY18.e7004_a875_r10201_p3840
mc16_13TeV.397036.MGPy8EG_A14N23LO_StauStau_340p0_40p0_TFilt.deriv.DAOD_SUSY18.e7004_a875_r9364_p3840
mc16_13TeV.397036.MGPy8EG_A14N23LO_StauStau_340p0_40p0_TFilt.deriv.DAOD_SUSY18.e7004_a875_r10724_p3840
mc16_13TeV.397036.MGPy8EG_A14N23LO_StauStau_340p0_40p0_TFilt.deriv.DAOD_SUSY18.e7004_a875_r10201_p3840
mc16_13TeV.397037.MGPy8EG_A14N23LO_StauStau_340p0_1p0_TFilt.deriv.DAOD_SUSY18.e7004_a875_r9364_p3840
mc16_13TeV.397037.MGPy8EG_A14N23LO_StauStau_340p0_1p0_TFilt.deriv.DAOD_SUSY18.e7004_a875_r10724_p3840
mc16_13TeV.397037.MGPy8EG_A14N23LO_StauStau_340p0_1p0_TFilt.deriv.DAOD_SUSY18.e7004_a875_r10201_p3840
mc16_13TeV.397038.MGPy8EG_A14N23LO_StauStau_320p0_200p0_TFilt.deriv.DAOD_SUSY18.e7004_a875_r9364_p3840
mc16_13TeV.397038.MGPy8EG_A14N23LO_StauStau_320p0_200p0_TFilt.deriv.DAOD_SUSY18.e7004_a875_r10724_p3840
mc16_13TeV.397038.MGPy8EG_A14N23LO_StauStau_320p0_200p0_TFilt.deriv.DAOD_SUSY18.e7004_a875_r10201_p3840
mc16_13TeV.397039.MGPy8EG_A14N23LO_StauStau_300p0_40p0_TFilt.deriv.DAOD_SUSY18.e7004_a875_r9364_p3840
mc16_13TeV.397039.MGPy8EG_A14N23LO_StauStau_300p0_40p0_TFilt.deriv.DAOD_SUSY18.e7004_a875_r10724_p3840
mc16_13TeV.397039.MGPy8EG_A14N23LO_StauStau_300p0_40p0_TFilt.deriv.DAOD_SUSY18.e7004_a875_r10201_p3840
mc16_13TeV.397040.MGPy8EG_A14N23LO_StauStau_300p0_1p0_TFilt.deriv.DAOD_SUSY18.e7004_a875_r9364_p3840
mc16_13TeV.397040.MGPy8EG_A14N23LO_StauStau_300p0_1p0_TFilt.deriv.DAOD_SUSY18.e7004_a875_r10724_p3840
mc16_13TeV.397040.MGPy8EG_A14N23LO_StauStau_300p0_1p0_TFilt.deriv.DAOD_SUSY18.e7004_a875_r10201_p3840
mc16_13TeV.397041.MGPy8EG_A14N23LO_StauStau_260p0_40p0_TFilt.deriv.DAOD_SUSY18.e7004_a875_r9364_p3840
mc16_13TeV.397041.MGPy8EG_A14N23LO_StauStau_260p0_40p0_TFilt.deriv.DAOD_SUSY18.e7004_a875_r10724_p3840
mc16_13TeV.397041.MGPy8EG_A14N23LO_StauStau_260p0_40p0_TFilt.deriv.DAOD_SUSY18.e7004_a875_r10201_p3840
mc16_13TeV.397042.MGPy8EG_A14N23LO_StauStau_260p0_1p0_TFilt.deriv.DAOD_SUSY18.e7004_a875_r9364_p3840
mc16_13TeV.397042.MGPy8EG_A14N23LO_StauStau_260p0_1p0_TFilt.deriv.DAOD_SUSY18.e7004_a875_r10724_p3840
mc16_13TeV.397042.MGPy8EG_A14N23LO_StauStau_260p0_1p0_TFilt.deriv.DAOD_SUSY18.e7004_a875_r10201_p3840
mc16_13TeV.397043.MGPy8EG_A14N23LO_StauStau_220p0_40p0_TFilt.deriv.DAOD_SUSY18.e7004_a875_r9364_p3840
mc16_13TeV.397043.MGPy8EG_A14N23LO_StauStau_220p0_40p0_TFilt.deriv.DAOD_SUSY18.e7004_a875_r10724_p3840
mc16_13TeV.397043.MGPy8EG_A14N23LO_StauStau_220p0_40p0_TFilt.deriv.DAOD_SUSY18.e7004_a875_r10201_p3840
mc16_13TeV.397044.MGPy8EG_A14N23LO_StauStau_220p0_1p0_TFilt.deriv.DAOD_SUSY18.e7004_a875_r9364_p3840
mc16_13TeV.397044.MGPy8EG_A14N23LO_StauStau_220p0_1p0_TFilt.deriv.DAOD_SUSY18.e7004_a875_r10724_p3840
mc16_13TeV.397044.MGPy8EG_A14N23LO_StauStau_220p0_1p0_TFilt.deriv.DAOD_SUSY18.e7004_a875_r10201_p3840
mc16_13TeV.397045.MGPy8EG_A14N23LO_StauStau_180p0_40p0_TFilt.deriv.DAOD_SUSY18.e7004_a875_r9364_p3840
mc16_13TeV.397045.MGPy8EG_A14N23LO_StauStau_180p0_40p0_TFilt.deriv.DAOD_SUSY18.e7004_a875_r10724_p3840
mc16_13TeV.397045.MGPy8EG_A14N23LO_StauStau_180p0_40p0_TFilt.deriv.DAOD_SUSY18.e7004_a875_r10201_p3840
mc16_13TeV.397046.MGPy8EG_A14N23LO_StauStau_180p0_1p0_TFilt.deriv.DAOD_SUSY18.e7004_a875_r9364_p3840
mc16_13TeV.397046.MGPy8EG_A14N23LO_StauStau_180p0_1p0_TFilt.deriv.DAOD_SUSY18.e7004_a875_r10724_p3840
mc16_13TeV.397046.MGPy8EG_A14N23LO_StauStau_180p0_1p0_TFilt.deriv.DAOD_SUSY18.e7004_a875_r10201_p3840
mc16_13TeV.397047.MGPy8EG_A14N23LO_StauStau_140p0_40p0_TFilt.deriv.DAOD_SUSY18.e7004_a875_r9364_p3840
mc16_13TeV.397047.MGPy8EG_A14N23LO_StauStau_140p0_40p0_TFilt.deriv.DAOD_SUSY18.e7004_a875_r10724_p3840
mc16_13TeV.397047.MGPy8EG_A14N23LO_StauStau_140p0_40p0_TFilt.deriv.DAOD_SUSY18.e7004_a875_r10201_p3840
mc16_13TeV.397048.MGPy8EG_A14N23LO_StauStau_140p0_1p0_TFilt.deriv.DAOD_SUSY18.e7004_a875_r9364_p3840
mc16_13TeV.397048.MGPy8EG_A14N23LO_StauStau_140p0_1p0_TFilt.deriv.DAOD_SUSY18.e7004_a875_r10724_p3840
mc16_13TeV.397048.MGPy8EG_A14N23LO_StauStau_140p0_1p0_TFilt.deriv.DAOD_SUSY18.e7004_a875_r10201_p3840
mc16_13TeV.397049.MGPy8EG_A14N23LO_StauStau_100p0_1p0_TFilt.deriv.DAOD_SUSY18.e7004_a875_r9364_p3840
mc16_13TeV.397049.MGPy8EG_A14N23LO_StauStau_100p0_1p0_TFilt.deriv.DAOD_SUSY18.e7004_a875_r10724_p3840
mc16_13TeV.397049.MGPy8EG_A14N23LO_StauStau_100p0_1p0_TFilt.deriv.DAOD_SUSY18.e7004_a875_r10201_p3840
